#logback.classic pattern: %d{dd-MM-yyyy HH:mm:ss.SSS} [%thread] %-5level %logger{36}.%M - %msg%n
#logback.classic pattern: %d{dd-MM-yyyy HH:mm:ss.SSS} [%thread] %-5level %logger{36}.%M - %msg%n
29-05-2018 15:37:29.917 [main] INFO  e.i.server.via.Swagger2SpringBoot.logStarting - Starting Swagger2SpringBoot on ALPEREAPW7 with PID 13984 (D:\WORKSPACES_MICROSERVICIOS\gestor\gestor-server-ws\target\classes started by alperea in D:\WORKSPACES_MICROSERVICIOS\gestor\gestor-server-ws)
29-05-2018 15:37:29.918 [main] DEBUG e.i.server.via.Swagger2SpringBoot.logStarting - Running with Spring Boot v2.0.2.RELEASE, Spring v5.0.6.RELEASE
29-05-2018 15:37:29.919 [main] INFO  e.i.server.via.Swagger2SpringBoot.logStartupProfileInfo - No active profile set, falling back to default profiles: default
29-05-2018 15:37:37.782 [main] INFO  e.i.server.via.Swagger2SpringBoot.logStarted - Started Swagger2SpringBoot in 8.203 seconds (JVM running for 9.455)
#logback.classic pattern: %d{dd-MM-yyyy HH:mm:ss.SSS} [%thread] %-5level %logger{36}.%M - %msg%n
#logback.classic pattern: %d{dd-MM-yyyy HH:mm:ss.SSS} [%thread] %-5level %logger{36}.%M - %msg%n
29-05-2018 15:40:06.990 [main] INFO  e.i.server.via.Swagger2SpringBoot.logStarting - Starting Swagger2SpringBoot on ALPEREAPW7 with PID 9584 (D:\WORKSPACES_MICROSERVICIOS\gestor\gestor-server-ws\target\classes started by alperea in D:\WORKSPACES_MICROSERVICIOS\gestor\gestor-server-ws)
29-05-2018 15:40:06.991 [main] DEBUG e.i.server.via.Swagger2SpringBoot.logStarting - Running with Spring Boot v2.0.2.RELEASE, Spring v5.0.6.RELEASE
29-05-2018 15:40:06.992 [main] INFO  e.i.server.via.Swagger2SpringBoot.logStartupProfileInfo - No active profile set, falling back to default profiles: default
29-05-2018 15:40:14.773 [main] INFO  e.i.server.via.Swagger2SpringBoot.logStarted - Started Swagger2SpringBoot in 8.119 seconds (JVM running for 9.136)
29-05-2018 15:40:34.866 [http-nio-8080-exec-1] INFO  e.i.server.via.api.ViaApiController.viaTransitsPost - Controller transitsPost (Num Transits): 3
29-05-2018 15:40:34.866 [http-nio-8080-exec-1] INFO  e.i.server.via.api.ViaApiController.viaTransitsPost - Save (Transits): 111111111111
29-05-2018 15:40:35.036 [http-nio-8080-exec-1] INFO  e.i.server.via.api.ViaApiController.viaTransitsPost - Save (Transits): 22222222222
29-05-2018 15:40:35.118 [http-nio-8080-exec-1] INFO  e.i.server.via.api.ViaApiController.viaTransitsPost - Save (Transits): 33333333
29-05-2018 15:40:35.213 [http-nio-8080-exec-1] INFO  e.i.s.via.interceptor.StatsFilter.doFilter - /via/transits: 529 ms 
#logback.classic pattern: %d{dd-MM-yyyy HH:mm:ss.SSS} [%thread] %-5level %logger{36}.%M - %msg%n
#logback.classic pattern: %d{dd-MM-yyyy HH:mm:ss.SSS} [%thread] %-5level %logger{36}.%M - %msg%n
#logback.classic pattern: %d{dd-MM-yyyy HH:mm:ss.SSS} [%thread] %-5level %logger{36}.%M - %msg%n
29-05-2018 15:42:56.337 [main] INFO  e.i.server.via.Swagger2SpringBoot.logStarting - Starting Swagger2SpringBoot on ALPEREAPW7 with PID 12864 (D:\WORKSPACES_MICROSERVICIOS\gestor\gestor-server-ws\target\classes started by alperea in D:\WORKSPACES_MICROSERVICIOS\gestor\gestor-server-ws)
29-05-2018 15:42:56.337 [main] DEBUG e.i.server.via.Swagger2SpringBoot.logStarting - Running with Spring Boot v2.0.2.RELEASE, Spring v5.0.6.RELEASE
29-05-2018 15:42:56.339 [main] INFO  e.i.server.via.Swagger2SpringBoot.logStartupProfileInfo - No active profile set, falling back to default profiles: default
29-05-2018 15:43:04.580 [main] INFO  e.i.server.via.Swagger2SpringBoot.logStarted - Started Swagger2SpringBoot in 8.601 seconds (JVM running for 9.661)
29-05-2018 15:43:09.192 [http-nio-8080-exec-1] INFO  e.i.server.via.api.ViaApiController.viaTransitsPost - Controller transitsPost (Num Transits): 3
29-05-2018 15:43:09.193 [http-nio-8080-exec-1] INFO  e.i.server.via.api.ViaApiController.viaTransitsPost - Save (Transits): 111111111111
29-05-2018 15:43:09.386 [http-nio-8080-exec-1] INFO  e.i.server.via.api.ViaApiController.viaTransitsPost - Save (Transits): 22222222222
29-05-2018 15:43:09.474 [http-nio-8080-exec-1] INFO  e.i.server.via.api.ViaApiController.viaTransitsPost - Save (Transits): 33333333
29-05-2018 15:43:09.579 [http-nio-8080-exec-1] INFO  e.i.s.via.interceptor.StatsFilter.doFilter - /via/transits: 503 ms 
29-05-2018 15:43:09.602 [http-nio-8080-exec-1] INFO  es.indra.common.controller.AuditApi.sendAudit - Receive the message: AuditModel 
uuid: 4783c2dc-bbd1-4437-9776-8c1c788d1947
url: http://localhost:8080/via/transits
wsInput: [
	{
		"idTransaction": 111111111111,
		"idIntermediador": 1,
		"cantidadDobleRuedas": 1,
		"cantidadEjes": 1,
		"carril": "string",
		"categoriaCobrada": "string",
		"categoriaDAC": 1,
		"codigoCliente": "string",
		"codigoListaUsuario": "string",
		"codigoOperador": 1,
		"codigoPaso": "string",
		"epc": "847236401829463528172634",
		"estacion": "0",
		"existeDescrepancia": false,
		"existeDiscrepanciaPlaca": false,
		"fechaActualizacionUsuario": "2018-05-09T11:04:30.521Z",
		"fechaHora": "2018-05-09T11:04:30.521Z",
		"fechaRecaudo": "2018-05-09T11:04:30.521Z",
		"plate": "AAAA-11",
		"placaOCR": "string",
		"sentido": "AGI-HYZ",
		"tip": "8172634125129483721492341",
		"tipoLectura": 1,
		"valor": 1
	},
	{
		"idTransaction": 22222222222,
		"idIntermediador": 2,
		"cantidadDobleRuedas": 1,
		"cantidadEjes": 1,
		"carril": "string",
		"categoriaCobrada": "string",
		"categoriaDAC": 1,
		"codigoCliente": "string",
		"codigoListaUsuario": "string",
		"codigoOperador": 1,
		"codigoPaso": "string",
		"epc": "34234234234234",
		"estacion": "0",
		"existeDescrepancia": false,
		"existeDiscrepanciaPlaca": false,
		"fechaActualizacionUsuario": "2018-05-09T11:04:30.521Z",
		"fechaHora": "2018-05-09T11:04:30.521Z",
		"fechaRecaudo": "2018-05-09T11:04:30.521Z",
		"plate": "BBB-44",
		"placaOCR": "string",
		"sentido": "AGI-HYZ",
		"tip": "5645654645645654",
		"tipoLectura": 1,
		"valor": 1
	},
	{
		"idTransaction": 33333333,
		"idIntermediador": 3,
		"cantidadDobleRuedas": 1,
		"cantidadEjes": 1,
		"carril": "string",
		"categoriaCobrada": "string",
		"categoriaDAC": 1,
		"codigoCliente": "string",
		"codigoListaUsuario": "string",
		"codigoOperador": 1,
		"codigoPaso": "string",
		"epc": "4564564564",
		"estacion": "0",
		"existeDescrepancia": false,
		"existeDiscrepanciaPlaca": false,
		"fechaActualizacionUsuario": "2018-05-09T11:04:30.521Z",
		"fechaHora": "2018-05-09T11:04:30.521Z",
		"fechaRecaudo": "2018-05-09T11:04:30.521Z",
		"plate": "CCC-11-A",
		"placaOCR": "string",
		"sentido": "AGI-HYZ",
		"tip": "45645645",
		"tipoLectura": 1,
		"valor": 1
	}
]
wsOuput: 
operation: POST
dateReception: Tue May 29 15:43:09 CEST 2018
dateSend: Tue May 29 15:43:09 CEST 2018
duration: 560
status: 200
host: localhost
 
#logback.classic pattern: %d{dd-MM-yyyy HH:mm:ss.SSS} [%thread] %-5level %logger{36}.%M - %msg%n
#logback.classic pattern: %d{dd-MM-yyyy HH:mm:ss.SSS} [%thread] %-5level %logger{36}.%M - %msg%n
29-05-2018 16:50:46.562 [main] INFO  e.i.server.via.Swagger2SpringBoot.logStarting - Starting Swagger2SpringBoot on ALPEREAPW7 with PID 1404 (D:\WORKSPACES_MICROSERVICIOS\gestor\gestor-server-ws\target\classes started by alperea in D:\WORKSPACES_MICROSERVICIOS\gestor\gestor-server-ws)
29-05-2018 16:50:46.563 [main] DEBUG e.i.server.via.Swagger2SpringBoot.logStarting - Running with Spring Boot v2.0.2.RELEASE, Spring v5.0.6.RELEASE
29-05-2018 16:50:46.565 [main] INFO  e.i.server.via.Swagger2SpringBoot.logStartupProfileInfo - No active profile set, falling back to default profiles: default
#logback.classic pattern: %d{dd-MM-yyyy HH:mm:ss.SSS} [%thread] %-5level %logger{36}.%M - %msg%n
#logback.classic pattern: %d{dd-MM-yyyy HH:mm:ss.SSS} [%thread] %-5level %logger{36}.%M - %msg%n
29-05-2018 16:51:15.093 [main] INFO  e.i.server.via.Swagger2SpringBoot.logStarting - Starting Swagger2SpringBoot on ALPEREAPW7 with PID 14000 (D:\WORKSPACES_MICROSERVICIOS\gestor\gestor-server-ws\target\classes started by alperea in D:\WORKSPACES_MICROSERVICIOS\gestor\gestor-server-ws)
29-05-2018 16:51:15.094 [main] DEBUG e.i.server.via.Swagger2SpringBoot.logStarting - Running with Spring Boot v2.0.2.RELEASE, Spring v5.0.6.RELEASE
29-05-2018 16:51:15.096 [main] INFO  e.i.server.via.Swagger2SpringBoot.logStartupProfileInfo - No active profile set, falling back to default profiles: default
#logback.classic pattern: %d{dd-MM-yyyy HH:mm:ss.SSS} [%thread] %-5level %logger{36}.%M - %msg%n
#logback.classic pattern: %d{dd-MM-yyyy HH:mm:ss.SSS} [%thread] %-5level %logger{36}.%M - %msg%n
29-05-2018 16:52:24.113 [main] INFO  e.i.server.via.Swagger2SpringBoot.logStarting - Starting Swagger2SpringBoot on ALPEREAPW7 with PID 1632 (D:\WORKSPACES_MICROSERVICIOS\gestor\gestor-server-ws\target\classes started by alperea in D:\WORKSPACES_MICROSERVICIOS\gestor\gestor-server-ws)
29-05-2018 16:52:24.114 [main] DEBUG e.i.server.via.Swagger2SpringBoot.logStarting - Running with Spring Boot v2.0.2.RELEASE, Spring v5.0.6.RELEASE
29-05-2018 16:52:24.116 [main] INFO  e.i.server.via.Swagger2SpringBoot.logStartupProfileInfo - No active profile set, falling back to default profiles: default
#logback.classic pattern: %d{dd-MM-yyyy HH:mm:ss.SSS} [%thread] %-5level %logger{36}.%M - %msg%n
#logback.classic pattern: %d{dd-MM-yyyy HH:mm:ss.SSS} [%thread] %-5level %logger{36}.%M - %msg%n
29-05-2018 16:54:01.527 [main] INFO  e.i.server.via.Swagger2SpringBoot.logStarting - Starting Swagger2SpringBoot on ALPEREAPW7 with PID 12796 (D:\WORKSPACES_MICROSERVICIOS\gestor\gestor-server-ws\target\classes started by alperea in D:\WORKSPACES_MICROSERVICIOS\gestor\gestor-server-ws)
29-05-2018 16:54:01.528 [main] DEBUG e.i.server.via.Swagger2SpringBoot.logStarting - Running with Spring Boot v2.0.2.RELEASE, Spring v5.0.6.RELEASE
29-05-2018 16:54:01.530 [main] INFO  e.i.server.via.Swagger2SpringBoot.logStartupProfileInfo - No active profile set, falling back to default profiles: default
29-05-2018 16:54:35.652 [main] INFO  e.i.server.via.Swagger2SpringBoot.logStarted - Started Swagger2SpringBoot in 34.48 seconds (JVM running for 35.509)
#logback.classic pattern: %d{dd-MM-yyyy HH:mm:ss.SSS} [%thread] %-5level %logger{36}.%M - %msg%n
#logback.classic pattern: %d{dd-MM-yyyy HH:mm:ss.SSS} [%thread] %-5level %logger{36}.%M - %msg%n
29-05-2018 16:55:21.747 [main] INFO  e.i.server.via.Swagger2SpringBoot.logStarting - Starting Swagger2SpringBoot on ALPEREAPW7 with PID 13472 (D:\WORKSPACES_MICROSERVICIOS\gestor\gestor-server-ws\target\classes started by alperea in D:\WORKSPACES_MICROSERVICIOS\gestor\gestor-server-ws)
29-05-2018 16:55:21.748 [main] DEBUG e.i.server.via.Swagger2SpringBoot.logStarting - Running with Spring Boot v2.0.2.RELEASE, Spring v5.0.6.RELEASE
29-05-2018 16:55:21.750 [main] INFO  e.i.server.via.Swagger2SpringBoot.logStartupProfileInfo - No active profile set, falling back to default profiles: default
29-05-2018 16:55:57.486 [main] INFO  e.i.server.via.Swagger2SpringBoot.logStarted - Started Swagger2SpringBoot in 36.08 seconds (JVM running for 37.083)
#logback.classic pattern: %d{dd-MM-yyyy HH:mm:ss.SSS} [%thread] %-5level %logger{36}.%M - %msg%n
#logback.classic pattern: %d{dd-MM-yyyy HH:mm:ss.SSS} [%thread] %-5level %logger{36}.%M - %msg%n
29-05-2018 16:56:34.228 [main] INFO  e.i.server.via.Swagger2SpringBoot.logStarting - Starting Swagger2SpringBoot on ALPEREAPW7 with PID 2400 (D:\WORKSPACES_MICROSERVICIOS\gestor\gestor-server-ws\target\classes started by alperea in D:\WORKSPACES_MICROSERVICIOS\gestor\gestor-server-ws)
29-05-2018 16:56:34.230 [main] DEBUG e.i.server.via.Swagger2SpringBoot.logStarting - Running with Spring Boot v2.0.2.RELEASE, Spring v5.0.6.RELEASE
29-05-2018 16:56:34.232 [main] INFO  e.i.server.via.Swagger2SpringBoot.logStartupProfileInfo - No active profile set, falling back to default profiles: default
29-05-2018 16:56:41.292 [main] INFO  e.i.server.via.Swagger2SpringBoot.logStarted - Started Swagger2SpringBoot in 7.395 seconds (JVM running for 8.442)
29-05-2018 16:56:56.659 [http-nio-8080-exec-1] INFO  e.i.s.via.interceptor.StatsFilter.doFilter - /: 27 ms 
29-05-2018 16:56:57.436 [http-nio-8080-exec-2] INFO  e.i.s.via.interceptor.StatsFilter.doFilter - /swagger-resources/configuration/ui: 80 ms 
29-05-2018 16:56:57.503 [http-nio-8080-exec-3] INFO  e.i.s.via.interceptor.StatsFilter.doFilter - /swagger-resources: 12 ms 
29-05-2018 16:56:57.606 [http-nio-8080-exec-4] INFO  e.i.s.via.interceptor.StatsFilter.doFilter - /api-docs: 84 ms 
29-05-2018 16:56:57.658 [http-nio-8080-exec-5] INFO  e.i.s.via.interceptor.StatsFilter.doFilter - /swagger-resources/configuration/security: 5 ms 
29-05-2018 16:57:16.039 [http-nio-8080-exec-1] INFO  e.i.server.via.api.ViaApiController.viaTransitsPost - Controller transitsPost (Num Transits): 3
29-05-2018 16:57:16.039 [http-nio-8080-exec-1] INFO  e.i.server.via.api.ViaApiController.viaTransitsPost - Save (Transits): 111111111111
29-05-2018 16:57:16.212 [http-nio-8080-exec-1] INFO  e.i.server.via.api.ViaApiController.viaTransitsPost - Save (Transits): 22222222222
29-05-2018 16:57:16.295 [http-nio-8080-exec-1] INFO  e.i.server.via.api.ViaApiController.viaTransitsPost - Save (Transits): 33333333
29-05-2018 16:57:16.381 [http-nio-8080-exec-1] INFO  e.i.s.via.interceptor.StatsFilter.doFilter - /via/transits: 429 ms 
29-05-2018 16:57:16.382 [http-nio-8080-exec-1] INFO  es.indra.common.controller.AuditApi.sendAudit - Receive the message: AuditModel 
uuid: 24288d2a-42db-4ed9-a79d-346e57f03e85
url: http://localhost:8080/via/transits
wsInput: [
	{
		"idTransaction": 111111111111,
		"idIntermediador": 1,
		"cantidadDobleRuedas": 1,
		"cantidadEjes": 1,
		"carril": "string",
		"categoriaCobrada": "string",
		"categoriaDAC": 1,
		"codigoCliente": "string",
		"codigoListaUsuario": "string",
		"codigoOperador": 1,
		"codigoPaso": "string",
		"epc": "847236401829463528172634",
		"estacion": "0",
		"existeDescrepancia": false,
		"existeDiscrepanciaPlaca": false,
		"fechaActualizacionUsuario": "2018-05-09T11:04:30.521Z",
		"fechaHora": "2018-05-09T11:04:30.521Z",
		"fechaRecaudo": "2018-05-09T11:04:30.521Z",
		"plate": "AAAA-11",
		"placaOCR": "string",
		"sentido": "AGI-HYZ",
		"tip": "8172634125129483721492341",
		"tipoLectura": 1,
		"valor": 1
	},
	{
		"idTransaction": 22222222222,
		"idIntermediador": 2,
		"cantidadDobleRuedas": 1,
		"cantidadEjes": 1,
		"carril": "string",
		"categoriaCobrada": "string",
		"categoriaDAC": 1,
		"codigoCliente": "string",
		"codigoListaUsuario": "string",
		"codigoOperador": 1,
		"codigoPaso": "string",
		"epc": "34234234234234",
		"estacion": "0",
		"existeDescrepancia": false,
		"existeDiscrepanciaPlaca": false,
		"fechaActualizacionUsuario": "2018-05-09T11:04:30.521Z",
		"fechaHora": "2018-05-09T11:04:30.521Z",
		"fechaRecaudo": "2018-05-09T11:04:30.521Z",
		"plate": "BBB-44",
		"placaOCR": "string",
		"sentido": "AGI-HYZ",
		"tip": "5645654645645654",
		"tipoLectura": 1,
		"valor": 1
	},
	{
		"idTransaction": 33333333,
		"idIntermediador": 3,
		"cantidadDobleRuedas": 1,
		"cantidadEjes": 1,
		"carril": "string",
		"categoriaCobrada": "string",
		"categoriaDAC": 1,
		"codigoCliente": "string",
		"codigoListaUsuario": "string",
		"codigoOperador": 1,
		"codigoPaso": "string",
		"epc": "4564564564",
		"estacion": "0",
		"existeDescrepancia": false,
		"existeDiscrepanciaPlaca": false,
		"fechaActualizacionUsuario": "2018-05-09T11:04:30.521Z",
		"fechaHora": "2018-05-09T11:04:30.521Z",
		"fechaRecaudo": "2018-05-09T11:04:30.521Z",
		"plate": "CCC-11-A",
		"placaOCR": "string",
		"sentido": "AGI-HYZ",
		"tip": "45645645",
		"tipoLectura": 1,
		"valor": 1
	}
]
wsOuput: 
operation: POST
dateReception: Tue May 29 16:57:15 CEST 2018
dateSend: Tue May 29 16:57:16 CEST 2018
duration: 432
status: 200
host: localhost
 
#logback.classic pattern: %d{dd-MM-yyyy HH:mm:ss.SSS} [%thread] %-5level %logger{36}.%M - %msg%n
#logback.classic pattern: %d{dd-MM-yyyy HH:mm:ss.SSS} [%thread] %-5level %logger{36}.%M - %msg%n
29-05-2018 16:58:32.223 [main] INFO  e.i.server.via.Swagger2SpringBoot.logStarting - Starting Swagger2SpringBoot on ALPEREAPW7 with PID 1392 (D:\WORKSPACES_MICROSERVICIOS\gestor\gestor-server-ws\target\classes started by alperea in D:\WORKSPACES_MICROSERVICIOS\gestor\gestor-server-ws)
29-05-2018 16:58:32.227 [main] DEBUG e.i.server.via.Swagger2SpringBoot.logStarting - Running with Spring Boot v2.0.2.RELEASE, Spring v5.0.6.RELEASE
29-05-2018 16:58:32.229 [main] INFO  e.i.server.via.Swagger2SpringBoot.logStartupProfileInfo - No active profile set, falling back to default profiles: default
#logback.classic pattern: %d{dd-MM-yyyy HH:mm:ss.SSS} [%thread] %-5level %logger{36}.%M - %msg%n
#logback.classic pattern: %d{dd-MM-yyyy HH:mm:ss.SSS} [%thread] %-5level %logger{36}.%M - %msg%n
29-05-2018 16:58:52.429 [main] INFO  e.i.server.via.Swagger2SpringBoot.logStarting - Starting Swagger2SpringBoot on ALPEREAPW7 with PID 4768 (D:\WORKSPACES_MICROSERVICIOS\gestor\gestor-server-ws\target\classes started by alperea in D:\WORKSPACES_MICROSERVICIOS\gestor\gestor-server-ws)
29-05-2018 16:58:52.431 [main] DEBUG e.i.server.via.Swagger2SpringBoot.logStarting - Running with Spring Boot v2.0.2.RELEASE, Spring v5.0.6.RELEASE
29-05-2018 16:58:52.433 [main] INFO  e.i.server.via.Swagger2SpringBoot.logStartupProfileInfo - No active profile set, falling back to default profiles: default
29-05-2018 16:58:59.796 [main] INFO  e.i.server.via.Swagger2SpringBoot.logStarted - Started Swagger2SpringBoot in 7.706 seconds (JVM running for 8.755)
