es\indra\server\operador\daos\DescriptorsDao.class
es\indra\server\operador\api\ApiException.class
es\indra\server\operador\services\impl\BalanceServiceImp.class
es\indra\server\operador\utils\GenericUtils.class
es\indra\server\operador\utils\GenericConstant.class
es\indra\server\operador\daos\impl\DescriptorsDaoImp.class
es\indra\server\operador\daos\TrxDao.class
es\indra\server\operador\daos\LstDao.class
es\indra\server\operador\model\Usuario.class
es\indra\server\operador\api\NotFoundException.class
es\indra\server\operador\model\ConfirmacionProcesamientoAjuste.class
es\indra\server\operador\api\ApiOriginFilter.class
es\indra\server\operador\model\Ajuste.class
es\indra\server\operador\services\impl\AdjServiceImp.class
es\indra\server\operador\model\ListaUsuario$TipoListaEnum.class
es\indra\server\operador\configuration\SwaggerDocumentationConfig.class
es\indra\server\operador\daos\impl\BalanceDaoImp.class
es\indra\server\operador\model\ErrorUsuario.class
es\indra\server\operador\daos\impl\BaseDaoImp.class
es\indra\server\operador\RFC3339DateFormat.class
es\indra\server\operador\api\V1Api.class
es\indra\server\operador\services\impl\LstServiceImp.class
es\indra\server\operador\services\AdjService.class
es\indra\server\operador\model\Usuario$CategoriaEnum.class
es\indra\server\operador\Swagger2SpringBoot$ExitException.class
es\indra\server\operador\model\NotificacionErrorProcesamientoListas.class
es\indra\server\operador\daos\AuditDao.class
es\indra\server\operador\Swagger2SpringBoot.class
es\indra\server\operador\model\ConfirmacionProcesamientoPaso.class
es\indra\server\operador\api\V1ApiController.class
es\indra\server\operador\daos\impl\LstDaoImp.class
es\indra\server\operador\model\ListaUsuario.class
es\indra\server\operador\model\Ticket.class
es\indra\server\operador\model\Paso.class
es\indra\server\operador\daos\AdjDao.class
es\indra\server\operador\services\impl\TrxServiceImp.class
es\indra\server\operador\api\ApiResponseMessage.class
es\indra\server\operador\model\Usuario$ModalidadEnum.class
es\indra\server\operador\model\ErrorResponse.class
es\indra\server\operador\model\PruebasPaso.class
es\indra\server\operador\daos\impl\AuditDaoImp.class
es\indra\server\operador\daos\BaseDao.class
es\indra\server\operador\configuration\HomeController.class
es\indra\server\operador\model\ErroresProcesamientoLista.class
es\indra\server\operador\services\impl\BaseServiceImp.class
es\indra\server\operador\services\LstService.class
es\indra\server\operador\services\TrxService.class
es\indra\server\operador\model\Saldo.class
es\indra\server\operador\daos\BalanceDao.class
es\indra\server\operador\services\BalanceService.class
es\indra\server\operador\configuration\HibernateConfig.class
es\indra\server\operador\daos\impl\AdjDaoImp.class
es\indra\server\operador\daos\impl\TrxDaoImp.class
es\indra\server\operador\services\BaseService.class
es\indra\server\operador\model\NegacionPaso.class
es\indra\server\operador\utils\CustomerDateAndTimeDeserialize.class
