D:\WORKSPACES_MICROSERVICIOS\gestor\gestor-server-operador\src\main\java\es\indra\server\operador\daos\impl\AuditDaoImp.java
D:\WORKSPACES_MICROSERVICIOS\gestor\gestor-server-operador\src\main\java\es\indra\server\operador\daos\impl\LstDaoImp.java
D:\WORKSPACES_MICROSERVICIOS\gestor\gestor-server-operador\src\main\java\es\indra\server\operador\entity\SigtOpTrxTestNotifH.java
D:\WORKSPACES_MICROSERVICIOS\gestor\gestor-server-operador\src\main\java\es\indra\server\operador\model\ErrorUsuario.java
D:\WORKSPACES_MICROSERVICIOS\gestor\gestor-server-operador\src\main\java\es\indra\server\operador\daos\BaseDao.java
D:\WORKSPACES_MICROSERVICIOS\gestor\gestor-server-operador\src\main\java\es\indra\server\operador\entity\SigtOpTrxAdjDscStatus.java
D:\WORKSPACES_MICROSERVICIOS\gestor\gestor-server-operador\src\main\java\es\indra\server\operador\entity\SigtTrxDscReadType.java
D:\WORKSPACES_MICROSERVICIOS\gestor\gestor-server-operador\src\main\java\es\indra\server\operador\entity\SigtOpLstDtlPro.java
D:\WORKSPACES_MICROSERVICIOS\gestor\gestor-server-operador\src\main\java\es\indra\server\operador\services\TrxService.java
D:\WORKSPACES_MICROSERVICIOS\gestor\gestor-server-operador\src\main\java\es\indra\server\operador\entity\SigtOpDscLstNotifStatus.java
D:\WORKSPACES_MICROSERVICIOS\gestor\gestor-server-operador\src\main\java\es\indra\server\operador\services\impl\BalanceServiceImp.java
D:\WORKSPACES_MICROSERVICIOS\gestor\gestor-server-operador\src\main\java\es\indra\server\operador\daos\impl\AdjDaoImp.java
D:\WORKSPACES_MICROSERVICIOS\gestor\gestor-server-operador\src\main\java\es\indra\server\operador\entity\SigtDscLstModality.java
D:\WORKSPACES_MICROSERVICIOS\gestor\gestor-server-operador\src\main\java\es\indra\server\operador\entity\SigtDscVehicleClass.java
D:\WORKSPACES_MICROSERVICIOS\gestor\gestor-server-operador\src\main\java\es\indra\server\operador\daos\DescriptorsDao.java
D:\WORKSPACES_MICROSERVICIOS\gestor\gestor-server-operador\src\main\java\es\indra\server\operador\model\Ajuste.java
D:\WORKSPACES_MICROSERVICIOS\gestor\gestor-server-operador\src\main\java\es\indra\server\operador\model\ErroresProcesamientoLista.java
D:\WORKSPACES_MICROSERVICIOS\gestor\gestor-server-operador\src\main\java\es\indra\server\operador\configuration\AuditInterceptor.java
D:\WORKSPACES_MICROSERVICIOS\gestor\gestor-server-operador\src\main\java\es\indra\server\operador\utils\GenericConstant.java
D:\WORKSPACES_MICROSERVICIOS\gestor\gestor-server-operador\src\main\java\es\indra\server\operador\utils\CustomerDateAndTimeDeserialize.java
D:\WORKSPACES_MICROSERVICIOS\gestor\gestor-server-operador\src\main\java\es\indra\server\operador\entity\SigtDscBalanceStatus.java
D:\WORKSPACES_MICROSERVICIOS\gestor\gestor-server-operador\src\main\java\es\indra\server\operador\model\ListaUsuario.java
D:\WORKSPACES_MICROSERVICIOS\gestor\gestor-server-operador\src\main\java\es\indra\server\operador\daos\impl\BaseDaoImp.java
D:\WORKSPACES_MICROSERVICIOS\gestor\gestor-server-operador\src\main\java\es\indra\server\operador\services\impl\TrxServiceImp.java
D:\WORKSPACES_MICROSERVICIOS\gestor\gestor-server-operador\src\main\java\es\indra\server\operador\model\PruebasPaso.java
D:\WORKSPACES_MICROSERVICIOS\gestor\gestor-server-operador\src\main\java\es\indra\server\operador\api\ApiResponseMessage.java
D:\WORKSPACES_MICROSERVICIOS\gestor\gestor-server-operador\src\main\java\es\indra\server\operador\daos\BalanceDao.java
D:\WORKSPACES_MICROSERVICIOS\gestor\gestor-server-operador\src\main\java\es\indra\server\operador\entity\SigtOpTrxTestResponseImage.java
D:\WORKSPACES_MICROSERVICIOS\gestor\gestor-server-operador\src\main\java\es\indra\server\operador\entity\SigtOpTrxNegPassDscStatus.java
D:\WORKSPACES_MICROSERVICIOS\gestor\gestor-server-operador\src\main\java\es\indra\server\operador\entity\SigtTrxAdjDscOptType.java
D:\WORKSPACES_MICROSERVICIOS\gestor\gestor-server-operador\src\main\java\es\indra\server\operador\entity\SigtCodeError.java
D:\WORKSPACES_MICROSERVICIOS\gestor\gestor-server-operador\src\main\java\es\indra\server\operador\entity\SigtDscCodAgency.java
D:\WORKSPACES_MICROSERVICIOS\gestor\gestor-server-operador\src\main\java\es\indra\server\operador\services\LstService.java
D:\WORKSPACES_MICROSERVICIOS\gestor\gestor-server-operador\src\main\java\es\indra\server\operador\daos\LstDao.java
D:\WORKSPACES_MICROSERVICIOS\gestor\gestor-server-operador\src\main\java\es\indra\server\operador\daos\TrxDao.java
D:\WORKSPACES_MICROSERVICIOS\gestor\gestor-server-operador\src\main\java\es\indra\server\operador\entity\SigtOpTrxAdjPend.java
D:\WORKSPACES_MICROSERVICIOS\gestor\gestor-server-operador\src\main\java\es\indra\server\operador\entity\SigtOpTrxDscStatus.java
D:\WORKSPACES_MICROSERVICIOS\gestor\gestor-server-operador\src\main\java\es\indra\server\operador\RFC3339DateFormat.java
D:\WORKSPACES_MICROSERVICIOS\gestor\gestor-server-operador\src\main\java\es\indra\server\operador\api\V1Api.java
D:\WORKSPACES_MICROSERVICIOS\gestor\gestor-server-operador\src\main\java\es\indra\server\operador\configuration\OperatorConfig.java
D:\WORKSPACES_MICROSERVICIOS\gestor\gestor-server-operador\src\main\java\es\indra\server\operador\model\ConfirmacionProcesamientoAjuste.java
D:\WORKSPACES_MICROSERVICIOS\gestor\gestor-server-operador\src\main\java\es\indra\server\operador\services\impl\AdjServiceImp.java
D:\WORKSPACES_MICROSERVICIOS\gestor\gestor-server-operador\src\main\java\es\indra\server\operador\services\BaseService.java
D:\WORKSPACES_MICROSERVICIOS\gestor\gestor-server-operador\src\main\java\es\indra\server\operador\entity\SigtDscTagStatus.java
D:\WORKSPACES_MICROSERVICIOS\gestor\gestor-server-operador\src\main\java\es\indra\server\operador\api\V1ApiController.java
D:\WORKSPACES_MICROSERVICIOS\gestor\gestor-server-operador\src\main\java\es\indra\server\operador\daos\impl\TrxDaoImp.java
D:\WORKSPACES_MICROSERVICIOS\gestor\gestor-server-operador\src\main\java\es\indra\server\operador\entity\SigtDscNotifType.java
D:\WORKSPACES_MICROSERVICIOS\gestor\gestor-server-operador\src\main\java\es\indra\server\operador\entity\SigtOpTrxPend.java
D:\WORKSPACES_MICROSERVICIOS\gestor\gestor-server-operador\src\main\java\es\indra\server\operador\entity\SigtDscInterfaz.java
D:\WORKSPACES_MICROSERVICIOS\gestor\gestor-server-operador\src\main\java\es\indra\server\operador\entity\SigtOpTrxNegPassPro.java
D:\WORKSPACES_MICROSERVICIOS\gestor\gestor-server-operador\src\main\java\es\indra\server\operador\model\ErrorResponse.java
D:\WORKSPACES_MICROSERVICIOS\gestor\gestor-server-operador\src\main\java\es\indra\server\operador\api\ApiException.java
D:\WORKSPACES_MICROSERVICIOS\gestor\gestor-server-operador\src\main\java\es\indra\server\operador\model\Paso.java
D:\WORKSPACES_MICROSERVICIOS\gestor\gestor-server-operador\src\main\java\es\indra\server\operador\model\Saldo.java
D:\WORKSPACES_MICROSERVICIOS\gestor\gestor-server-operador\src\main\java\es\indra\server\operador\services\impl\LstServiceImp.java
D:\WORKSPACES_MICROSERVICIOS\gestor\gestor-server-operador\src\main\java\es\indra\server\operador\entity\SigtOpDscTrxTestNotifStatus.java
D:\WORKSPACES_MICROSERVICIOS\gestor\gestor-server-operador\src\main\java\es\indra\server\operador\configuration\AuditFilter.java
D:\WORKSPACES_MICROSERVICIOS\gestor\gestor-server-operador\src\main\java\es\indra\server\operador\daos\AdjDao.java
D:\WORKSPACES_MICROSERVICIOS\gestor\gestor-server-operador\src\main\java\es\indra\server\operador\daos\impl\DescriptorsDaoImp.java
D:\WORKSPACES_MICROSERVICIOS\gestor\gestor-server-operador\src\main\java\es\indra\server\operador\entity\SigtOpLstNotifH.java
D:\WORKSPACES_MICROSERVICIOS\gestor\gestor-server-operador\src\main\java\es\indra\server\operador\services\BalanceService.java
D:\WORKSPACES_MICROSERVICIOS\gestor\gestor-server-operador\src\main\java\es\indra\server\operador\entity\SigtOpTrxTestNotif.java
D:\WORKSPACES_MICROSERVICIOS\gestor\gestor-server-operador\src\main\java\es\indra\server\operador\utils\Audit.java
D:\WORKSPACES_MICROSERVICIOS\gestor\gestor-server-operador\src\main\java\es\indra\server\operador\configuration\HibernateConfig.java
D:\WORKSPACES_MICROSERVICIOS\gestor\gestor-server-operador\src\main\java\es\indra\server\operador\daos\AuditDao.java
D:\WORKSPACES_MICROSERVICIOS\gestor\gestor-server-operador\src\main\java\es\indra\server\operador\entity\SigtDscPlaces.java
D:\WORKSPACES_MICROSERVICIOS\gestor\gestor-server-operador\src\main\java\es\indra\server\operador\entity\SigtDscTrxTestResponseCode.java
D:\WORKSPACES_MICROSERVICIOS\gestor\gestor-server-operador\src\main\java\es\indra\server\operador\entity\SigtOpTrxNegPassPend.java
D:\WORKSPACES_MICROSERVICIOS\gestor\gestor-server-operador\src\main\java\es\indra\server\operador\api\NotFoundException.java
D:\WORKSPACES_MICROSERVICIOS\gestor\gestor-server-operador\src\main\java\es\indra\server\operador\entity\SigtOpToIntNotif.java
D:\WORKSPACES_MICROSERVICIOS\gestor\gestor-server-operador\src\main\java\es\indra\server\operador\entity\SigtOpTrxTestResponse.java
D:\WORKSPACES_MICROSERVICIOS\gestor\gestor-server-operador\src\main\java\es\indra\server\operador\configuration\InterceptorConfiguration.java
D:\WORKSPACES_MICROSERVICIOS\gestor\gestor-server-operador\src\main\java\es\indra\server\operador\daos\impl\BalanceDaoImp.java
D:\WORKSPACES_MICROSERVICIOS\gestor\gestor-server-operador\src\main\java\es\indra\server\operador\configuration\HomeController.java
D:\WORKSPACES_MICROSERVICIOS\gestor\gestor-server-operador\src\main\java\es\indra\server\operador\utils\GenericFilterDTO.java
D:\WORKSPACES_MICROSERVICIOS\gestor\gestor-server-operador\src\main\java\es\indra\server\operador\model\Usuario.java
D:\WORKSPACES_MICROSERVICIOS\gestor\gestor-server-operador\src\main\java\es\indra\server\operador\entity\SigtOpTrxAdjPro.java
D:\WORKSPACES_MICROSERVICIOS\gestor\gestor-server-operador\src\main\java\es\indra\server\operador\entity\SigtOpLstDtlErr.java
D:\WORKSPACES_MICROSERVICIOS\gestor\gestor-server-operador\src\main\java\es\indra\server\operador\model\ConfirmacionProcesamientoPaso.java
D:\WORKSPACES_MICROSERVICIOS\gestor\gestor-server-operador\src\main\java\es\indra\server\operador\model\Ticket.java
D:\WORKSPACES_MICROSERVICIOS\gestor\gestor-server-operador\src\main\java\es\indra\server\operador\entity\SigtOpLstDtlPend.java
D:\WORKSPACES_MICROSERVICIOS\gestor\gestor-server-operador\src\main\java\es\indra\server\operador\entity\SigtOpTrxPro.java
D:\WORKSPACES_MICROSERVICIOS\gestor\gestor-server-operador\src\main\java\es\indra\server\operador\services\AdjService.java
D:\WORKSPACES_MICROSERVICIOS\gestor\gestor-server-operador\src\main\java\es\indra\server\operador\utils\GenericUtils.java
D:\WORKSPACES_MICROSERVICIOS\gestor\gestor-server-operador\src\main\java\es\indra\server\operador\model\NotificacionErrorProcesamientoListas.java
D:\WORKSPACES_MICROSERVICIOS\gestor\gestor-server-operador\src\main\java\es\indra\server\operador\entity\SigtTrxNegPassDscReason.java
D:\WORKSPACES_MICROSERVICIOS\gestor\gestor-server-operador\src\main\java\es\indra\server\operador\Swagger2SpringBoot.java
D:\WORKSPACES_MICROSERVICIOS\gestor\gestor-server-operador\src\main\java\es\indra\server\operador\api\ApiOriginFilter.java
D:\WORKSPACES_MICROSERVICIOS\gestor\gestor-server-operador\src\main\java\es\indra\server\operador\entity\SigtDscCodListType.java
D:\WORKSPACES_MICROSERVICIOS\gestor\gestor-server-operador\src\main\java\es\indra\server\operador\entity\SigtOpLstNotif.java
D:\WORKSPACES_MICROSERVICIOS\gestor\gestor-server-operador\src\main\java\es\indra\server\operador\configuration\SwaggerDocumentationConfig.java
D:\WORKSPACES_MICROSERVICIOS\gestor\gestor-server-operador\src\main\java\es\indra\server\operador\model\NegacionPaso.java
D:\WORKSPACES_MICROSERVICIOS\gestor\gestor-server-operador\src\main\java\es\indra\server\operador\services\impl\BaseServiceImp.java
D:\WORKSPACES_MICROSERVICIOS\gestor\gestor-server-operador\src\main\java\es\indra\server\operador\entity\SigtOpBalance.java
D:\WORKSPACES_MICROSERVICIOS\gestor\gestor-server-operador\src\main\java\es\indra\server\operador\entity\SigtTrxAdjDscReason.java
