[
	{
		"codigoPaso": "10027_111111111111",
		"codigoIntermediador": 1,
		"tokenConfirmacion": "111",
		"codigoRespuesta": 1,
		"descripcion": "string"		
	},
	{
		"codigoPaso": "10027_22222222222",
		"codigoIntermediador": 2,
		"tokenConfirmacion": "222",
		"codigoRespuesta": 3,
		"descripcion": "string"		
	},
	{
		"codigoPaso": "10027_33333333",
		"codigoIntermediador": 3,
		"tokenConfirmacion": "333",
		"codigoRespuesta": 3,
		"descripcion": "string"	
	}
]