D:\WORKSPACES_MICROSERVICIOS\gestor\gestor-server-ws\src\main\java\es\indra\server\via\Swagger2SpringBoot.java
D:\WORKSPACES_MICROSERVICIOS\gestor\gestor-server-ws\src\main\java\es\indra\server\via\api\GenericUtils.java
D:\WORKSPACES_MICROSERVICIOS\gestor\gestor-server-ws\src\main\java\es\indra\server\via\repository\TransitRepository.java
D:\WORKSPACES_MICROSERVICIOS\gestor\gestor-server-ws\src\main\java\es\indra\server\via\api\ViaApi.java
D:\WORKSPACES_MICROSERVICIOS\gestor\gestor-server-ws\src\main\java\es\indra\server\via\api\ApiException.java
D:\WORKSPACES_MICROSERVICIOS\gestor\gestor-server-ws\src\main\java\es\indra\server\via\api\ApiOriginFilter.java
D:\WORKSPACES_MICROSERVICIOS\gestor\gestor-server-ws\src\main\java\es\indra\server\via\entity\SigtDscVehicleClass.java
D:\WORKSPACES_MICROSERVICIOS\gestor\gestor-server-ws\src\main\java\es\indra\server\via\model\TransitJson.java
D:\WORKSPACES_MICROSERVICIOS\gestor\gestor-server-ws\src\main\java\es\indra\server\via\configuration\SwaggerDocumentationConfig.java
D:\WORKSPACES_MICROSERVICIOS\gestor\gestor-server-ws\src\main\java\es\indra\server\via\service\DescriptorService.java
D:\WORKSPACES_MICROSERVICIOS\gestor\gestor-server-ws\src\main\java\es\indra\server\via\filter\AuditFilter.java
D:\WORKSPACES_MICROSERVICIOS\gestor\gestor-server-ws\src\main\java\es\indra\server\via\api\ApiResponseMessage.java
D:\WORKSPACES_MICROSERVICIOS\gestor\gestor-server-ws\src\main\java\es\indra\server\via\api\NotFoundException.java
D:\WORKSPACES_MICROSERVICIOS\gestor\gestor-server-ws\src\main\java\es\indra\server\via\repository\DescriptorRepository.java
D:\WORKSPACES_MICROSERVICIOS\gestor\gestor-server-ws\src\main\java\es\indra\server\via\entity\SigtOpTrxPend.java
D:\WORKSPACES_MICROSERVICIOS\gestor\gestor-server-ws\src\main\java\es\indra\server\via\RFC3339DateFormat.java
D:\WORKSPACES_MICROSERVICIOS\gestor\gestor-server-ws\src\main\java\es\indra\server\via\entity\SigtDscCodAgency.java
D:\WORKSPACES_MICROSERVICIOS\gestor\gestor-server-ws\src\main\java\es\indra\server\via\interceptor\AuditInterceptor.java
D:\WORKSPACES_MICROSERVICIOS\gestor\gestor-server-ws\src\main\java\es\indra\server\via\repository\impl\DescriptorRepositoryImpl.java
D:\WORKSPACES_MICROSERVICIOS\gestor\gestor-server-ws\src\main\java\es\indra\server\via\service\SqlService.java
D:\WORKSPACES_MICROSERVICIOS\gestor\gestor-server-ws\src\main\java\es\indra\server\via\service\impl\SqlTransitService.java
D:\WORKSPACES_MICROSERVICIOS\gestor\gestor-server-ws\src\main\java\es\indra\server\via\entity\SigtOpTrxDscStatus.java
D:\WORKSPACES_MICROSERVICIOS\gestor\gestor-server-ws\src\main\java\es\indra\server\via\interceptor\StatsFilter.java
D:\WORKSPACES_MICROSERVICIOS\gestor\gestor-server-ws\src\main\java\es\indra\server\via\model\TransitsJson.java
D:\WORKSPACES_MICROSERVICIOS\gestor\gestor-server-ws\src\main\java\es\indra\server\via\configuration\InterceptorConfiguration.java
D:\WORKSPACES_MICROSERVICIOS\gestor\gestor-server-ws\src\main\java\es\indra\server\via\service\impl\DescriptorServiceImp.java
D:\WORKSPACES_MICROSERVICIOS\gestor\gestor-server-ws\src\main\java\es\indra\server\via\configuration\HomeController.java
D:\WORKSPACES_MICROSERVICIOS\gestor\gestor-server-ws\src\main\java\es\indra\server\via\entity\SigtDscPlaces.java
D:\WORKSPACES_MICROSERVICIOS\gestor\gestor-server-ws\src\main\java\es\indra\server\via\api\ViaApiController.java
